<?xml version="1.0" encoding="UTF-8"?>
<svg width="22px" height="22px" viewBox="0 0 22 22" version="1.1" xmlns="http://www.w3.org/2000/svg" xmlns:xlink="http://www.w3.org/1999/xlink">
    <!-- Generator: Sketch 46.1 (44463) - http://www.bohemiancoding.com/sketch -->
    <title>icon/tests</title>
    <desc>Created with Sketch.</desc>
    <defs></defs>
    <g id="Symbols" stroke="none" stroke-width="1" fill="none" fill-rule="evenodd">
        <g id="icon/tests">
            <rect id="Rectangle" x="0" y="0" width="22" height="22"></rect>
            <g id="Page-1" transform="translate(2.000000, 0.000000)" fill="#373737">
                <path d="M15.6465,4 L15.0005,4 L15.0005,6.235 C15.0005,6.606 14.5295,7 14.1595,7 L3.7475,7 C3.3765,7 3.0005,6.606 3.0005,6.235 L3.0005,4 L2.3715,4 C1.1585,4 0.0005,4.939 0.0005,6.018 L0.0005,19.046 C0.0005,20.125 1.1585,21 2.3715,21 L15.6465,21 C16.8605,21 18.0005,20.125 18.0005,19.046 L18.0005,6.018 C18.0005,4.939 16.8605,4 15.6465,4" id="Fill-1"></path>
                <path d="M9.0093,3.4729 C8.4693,3.4729 8.0323,3.0359 8.0323,2.4959 C8.0323,1.9559 8.4693,1.5189 9.0093,1.5189 C9.5493,1.5189 9.9863,1.9559 9.9863,2.4959 C9.9863,3.0359 9.5493,3.4729 9.0093,3.4729 M12.9483,2.9999 L11.9343,2.9999 L11.9403,2.8859 C11.9403,1.2789 10.6373,-0.0001 9.0303,-0.0001 L8.9883,-0.0001 C7.3813,-0.0001 6.0783,1.2789 6.0783,2.8859 L6.0843,2.9999 L5.0703,2.9999 C4.5473,2.9999 4.0003,2.9769 4.0003,3.4989 L4.0003,5.5149 C4.0003,6.0379 4.5473,5.9999 5.0703,5.9999 L12.9483,5.9999 C13.4713,5.9999 14.0003,6.0379 14.0003,5.5149 L14.0003,3.4989 C14.0003,2.9769 13.4713,2.9999 12.9483,2.9999" id="Fill-4"></path>
            </g>
        </g>
    </g>
</svg>