<?xml version="1.0" encoding="UTF-8"?>
<svg width="51px" height="52px" viewBox="0 0 51 52" version="1.1" xmlns="http://www.w3.org/2000/svg" xmlns:xlink="http://www.w3.org/1999/xlink">
    <!-- Generator: Sketch 46.1 (44463) - http://www.bohemiancoding.com/sketch -->
    <title>icon/gender/male</title>
    <desc>Created with Sketch.</desc>
    <defs>
        <polygon id="path-1" points="0.0003 0.079 50.833 0.079 50.833 50.9124 0.0003 50.9124"></polygon>
        <polygon id="path-3" points="30.4906 17 0.4706 17 0.4706 0.3704 30.4906 0.3704"></polygon>
    </defs>
    <g id="Symbols" stroke="none" stroke-width="1" fill="none" fill-rule="evenodd">
        <g id="icon/gender/male">
            <g id="Page-1">
                <g id="Group-3" transform="translate(0.000000, 0.921300)">
                    <mask id="mask-2" fill="white">
                        <use xlink:href="#path-1"></use>
                    </mask>
                    <g id="Clip-2"></g>
                    <path d="M50.8333,25.4954 C50.8333,39.5324 39.4543,50.9124 25.4163,50.9124 C11.3793,50.9124 0.0003,39.5324 0.0003,25.4954 C0.0003,11.4584 11.3793,0.0784 25.4163,0.0784 C39.4543,0.0784 50.8333,11.4584 50.8333,25.4954" id="Fill-1" fill="#F5F5F5" mask="url(#mask-2)"></path>
                </g>
                <g id="Group-6" transform="translate(10.000000, 34.921300)">
                    <mask id="mask-4" fill="white">
                        <use xlink:href="#path-3"></use>
                    </mask>
                    <g id="Clip-5"></g>
                    <path d="M20.6926,0.3704 L10.2496,0.3704 C10.2496,6.3704 6.4066,11.5554 0.4706,12.2244 C4.6666,15.2804 9.8286,17.0004 15.4166,17.0004 C21.0606,17.0004 26.2736,15.2894 30.4906,12.1774 C24.5416,11.5694 20.6926,6.3704 20.6926,0.3704" id="Fill-4" fill="#D2D2D2" mask="url(#mask-4)"></path>
                </g>
                <path d="M33.8754,12.178 C31.3574,12.178 29.3154,15.487 29.3154,19.568 C29.3154,23.65 31.3574,26.958 33.8754,26.958 C36.3934,26.958 38.4354,23.65 38.4354,19.568 C38.4354,15.487 36.3934,12.178 33.8754,12.178 M16.8754,12.178 C14.3574,12.178 12.3154,15.487 12.3154,19.568 C12.3154,23.65 14.3574,26.958 16.8754,26.958 C19.3934,26.958 21.4354,23.65 21.4354,19.568 C21.4354,15.487 19.3934,12.178 16.8754,12.178" id="Fill-7" fill="#B3B3B3"></path>
                <path d="M25.4165,42.3861 L25.4165,42.3861 C19.0985,42.2771 14.5725,34.1621 14.5835,28.4971 L14.5835,23.0111 C14.5465,17.2941 19.4295,12.3381 25.4165,12.1781 C31.4045,12.3381 36.2885,17.2941 36.2495,23.0111 C36.2495,24.8401 36.2495,26.6691 36.2505,28.4971 C36.2605,34.1621 31.7375,42.2771 25.4165,42.3861" id="Fill-9" fill="#DFDFDF"></path>
                <path d="M35.9559,13.4248 C35.9559,16.3888 31.2369,18.7918 25.4169,18.7918 C19.5959,18.7918 14.8779,16.3888 14.8779,13.4248 C14.8779,10.4608 19.5959,8.0578 25.4169,8.0578 C31.2369,8.0578 35.9559,10.4608 35.9559,13.4248" id="Fill-11" fill="#B3B3B3"></path>
                <polygon id="Fill-13" fill="#BBBBBB" points="24.4352 33.2917 23.4352 33.2917 23.4352 26.2917 19.4352 26.2917 19.4352 25.2917 24.4352 25.2917"></polygon>
                <polygon id="Fill-15" fill="#BBBBBB" points="27.435 26.2913 31.435 26.2913 31.435 25.2913 27.435 25.2913"></polygon>
            </g>
        </g>
    </g>
</svg>