<?xml version="1.0" encoding="UTF-8"?>
<svg width="73px" height="70px" viewBox="0 0 73 70" version="1.1" xmlns="http://www.w3.org/2000/svg" xmlns:xlink="http://www.w3.org/1999/xlink">
    <!-- Generator: Sketch 46 (44423) - http://www.bohemiancoding.com/sketch -->
    <title>Page 1</title>
    <desc>Created with Sketch.</desc>
    <defs>
        <polygon id="path-1" points="0 69.373 72.733 69.373 72.733 0 0 0"></polygon>
    </defs>
    <g id="Proto---general" stroke="none" stroke-width="1" fill="none" fill-rule="evenodd">
        <g id="Home-main" transform="translate(-144.000000, -174.000000)">
            <g id="home-main-action" transform="translate(24.000000, 129.000000)">
                <g id="Page-1" transform="translate(120.000000, 45.000000)">
                    <path d="M61.2232,12.1294 L66.3702,12.1294 C69.3322,12.1294 71.7332,14.2644 71.7332,16.8994 L71.7332,48.6974 C71.7332,51.3314 69.3322,53.4674 66.3702,53.4674 L33.9702,53.4674 C31.0082,53.4674 28.6072,51.3314 28.6072,48.6974 L28.6072,16.8994 C28.6072,14.2644 31.0082,12.1294 33.9702,12.1294 L39.1762,12.1294 L61.2232,12.1294 Z" id="Fill-1" fill="#FFFFFF"></path>
                    <path d="M61.2232,12.1294 L66.3702,12.1294 C69.3322,12.1294 71.7332,14.2644 71.7332,16.8994 L71.7332,48.6974 C71.7332,51.3314 69.3322,53.4674 66.3702,53.4674 L33.9702,53.4674 C31.0082,53.4674 28.6072,51.3314 28.6072,48.6974 L28.6072,16.8994 C28.6072,14.2644 31.0082,12.1294 33.9702,12.1294 L39.1762,12.1294 L61.2232,12.1294 Z" id="Stroke-3" stroke="#2E47B4" stroke-width="2"></path>
                    <path d="M57.3102,8.4421 L59.7842,8.4421 C61.0602,8.4421 62.0942,9.4761 62.0942,10.7521 L62.0942,15.6721 C62.0942,16.9471 61.0602,17.9821 59.7842,17.9821 L40.5552,17.9821 C39.2802,17.9821 38.2462,16.9471 38.2462,15.6721 L38.2462,10.7521 C38.2462,9.4761 39.2802,8.4421 40.5552,8.4421 L43.0302,8.4421 L43.0152,8.1041 C43.0152,4.1811 46.1962,1.0001 50.1202,1.0001 L50.2202,1.0001 C54.1442,1.0001 57.3252,4.1811 57.3252,8.1041 L57.3102,8.4421 Z" id="Fill-5" fill="#FFFFFF"></path>
                    <path d="M57.3102,8.4421 L59.7842,8.4421 C61.0602,8.4421 62.0942,9.4761 62.0942,10.7521 L62.0942,15.6721 C62.0942,16.9471 61.0602,17.9821 59.7842,17.9821 L40.5552,17.9821 C39.2802,17.9821 38.2462,16.9471 38.2462,15.6721 L38.2462,10.7521 C38.2462,9.4761 39.2802,8.4421 40.5552,8.4421 L43.0302,8.4421 L43.0152,8.1041 C43.0152,4.1811 46.1962,1.0001 50.1202,1.0001 L50.2202,1.0001 C54.1442,1.0001 57.3252,4.1811 57.3252,8.1041 L57.3102,8.4421 Z" id="Stroke-7" stroke="#2E47B4" stroke-width="2"></path>
                    <path d="M57.8391,68.373 L5.4941,68.373 C3.0121,68.373 1.0001,66.361 1.0001,63.879 L1.0001,28.327 C1.0001,25.845 3.0121,23.832 5.4941,23.832 L57.8391,23.832 C60.3211,23.832 62.3331,25.845 62.3331,28.327 L62.3331,63.879 C62.3331,66.361 60.3211,68.373 57.8391,68.373" id="Fill-9" fill="#FFFFFF"></path>
                    <path d="M57.8391,68.373 L5.4941,68.373 C3.0121,68.373 1.0001,66.361 1.0001,63.879 L1.0001,28.327 C1.0001,25.845 3.0121,23.832 5.4941,23.832 L57.8391,23.832 C60.3211,23.832 62.3331,25.845 62.3331,28.327 L62.3331,63.879 C62.3331,66.361 60.3211,68.373 57.8391,68.373 Z" id="Stroke-11" stroke="#05BDFF" stroke-width="2"></path>
                    <mask id="mask-2" fill="white">
                        <use xlink:href="#path-1"></use>
                    </mask>
                    <g id="Clip-14"></g>
                    <polygon id="Fill-13" fill="#DCF8FF" mask="url(#mask-2)" points="7 62.706 53 62.706 53 29.5 7 29.5"></polygon>
                    <polygon id="Stroke-15" stroke="#05BDFF" stroke-width="2" mask="url(#mask-2)" points="7 62.706 53 62.706 53 29.5 7 29.5"></polygon>
                    <path d="M59.1658,46.1027 C59.1658,46.9767 58.4568,47.6857 57.5828,47.6857 C56.7088,47.6857 55.9998,46.9767 55.9998,46.1027 C55.9998,45.2287 56.7088,44.5197 57.5828,44.5197 C58.4568,44.5197 59.1658,45.2287 59.1658,46.1027" id="Fill-16" fill="#05BDFF" mask="url(#mask-2)"></path>
                    <path d="M52.555,8.3026 C52.555,9.6196 51.487,10.6876 50.17,10.6876 C48.853,10.6876 47.785,9.6196 47.785,8.3026 C47.785,6.9856 48.853,5.9176 50.17,5.9176 C51.487,5.9176 52.555,6.9856 52.555,8.3026" id="Fill-17" fill="#2E47B4" mask="url(#mask-2)"></path>
                    <path d="M46.3251,29.4992 L34.7551,41.0692" id="Stroke-18" stroke="#05BDFF" stroke-width="2" stroke-linecap="round" mask="url(#mask-2)"></path>
                    <path d="M53.0001,30.8242 L45.7551,38.0692" id="Stroke-19" stroke="#05BDFF" stroke-width="2" stroke-linecap="round" mask="url(#mask-2)"></path>
                </g>
            </g>
        </g>
    </g>
</svg>