<?xml version="1.0" encoding="UTF-8"?>
<svg width="22px" height="22px" viewBox="0 0 22 22" version="1.1" xmlns="http://www.w3.org/2000/svg" xmlns:xlink="http://www.w3.org/1999/xlink">
    <!-- Generator: Sketch 46.1 (44463) - http://www.bohemiancoding.com/sketch -->
    <title>icon/start</title>
    <desc>Created with Sketch.</desc>
    <defs></defs>
    <g id="Symbols" stroke="none" stroke-width="1" fill="none" fill-rule="evenodd">
        <g id="icon/start">
            <g id="start">
                <circle id="Oval" fill="#78D44F" cx="11" cy="11" r="11"></circle>
                <path d="M9.82232282,15.3743438 C9.61178186,15.3743438 9.40165211,15.292439 9.2408679,15.1282094 C8.9197107,14.8001703 8.9197107,14.2684192 9.2408679,13.9403801 L11.9363679,11.1871194 L9.2408679,8.43427871 C8.9197107,8.10623957 8.9197107,7.57406851 9.2408679,7.24602936 C9.56202511,6.91799021 10.0826205,6.91799021 10.4037777,7.24602936 L14.2621876,11.1871194 L10.4037777,15.1282094 C10.2429935,15.292439 10.0328638,15.3743438 9.82232282,15.3743438" id="Fill-1" fill="#FFFFFF"></path>
            </g>
        </g>
    </g>
</svg>