<?xml version="1.0" encoding="UTF-8"?>
<svg width="51px" height="52px" viewBox="0 0 51 52" version="1.1" xmlns="http://www.w3.org/2000/svg" xmlns:xlink="http://www.w3.org/1999/xlink">
    <!-- Generator: Sketch 46.1 (44463) - http://www.bohemiancoding.com/sketch -->
    <title>icon/gender/female</title>
    <desc>Created with Sketch.</desc>
    <defs>
        <polygon id="path-1" points="0.0003 0.079 50.833 0.079 50.833 50.9124 0.0003 50.9124"></polygon>
        <polygon id="path-3" points="30.4905 17 0.3435 17 0.3435 0.3704 30.4905 0.3704 30.4905 17"></polygon>
    </defs>
    <g id="Symbols" stroke="none" stroke-width="1" fill="none" fill-rule="evenodd">
        <g id="icon/gender/female">
            <g id="Page-1">
                <g id="Group-3" transform="translate(0.000000, 0.921300)">
                    <mask id="mask-2" fill="white">
                        <use xlink:href="#path-1"></use>
                    </mask>
                    <g id="Clip-2"></g>
                    <path d="M50.8333,25.4954 C50.8333,39.5324 39.4543,50.9124 25.4163,50.9124 C11.3793,50.9124 0.0003,39.5324 0.0003,25.4954 C0.0003,11.4584 11.3793,0.0784 25.4163,0.0784 C39.4543,0.0784 50.8333,11.4584 50.8333,25.4954" id="Fill-1" fill="#F5F5F5" mask="url(#mask-2)"></path>
                </g>
                <path d="M40.4525,39.8122 C39.1815,38.4422 38.9785,36.2152 38.8065,34.4512 C38.5615,31.9422 38.6485,29.3602 38.6385,26.8332 C38.6195,22.3062 38.3915,17.3972 35.3765,13.7432 C33.0355,10.9062 29.3975,9.2322 25.7485,9.0572 C21.6805,8.8622 17.4225,10.4592 14.6775,13.5092 C11.9725,16.5162 11.3865,20.5992 11.2385,24.4932 C11.1655,26.4442 11.0655,28.3862 10.9015,30.3312 C10.7575,32.0472 10.5915,33.7622 10.3555,35.4672 C10.1875,36.6782 10.0365,37.9592 9.6045,39.1112 C9.5235,39.3262 9.4335,39.5642 9.2735,39.7362 C8.8375,40.2022 9.3185,41.3432 10.0805,41.6552 C19.5685,45.4662 30.1645,45.4862 39.6535,41.6742 C40.4205,41.3592 40.8895,40.2832 40.4525,39.8122" id="Fill-4" fill="#B3B3B3"></path>
                <g id="Group-8" transform="translate(10.000000, 34.921300)">
                    <mask id="mask-4" fill="white">
                        <use xlink:href="#path-3"></use>
                    </mask>
                    <g id="Clip-7"></g>
                    <path d="M19.6925,0.3704 L11.1405,0.3704 C11.1405,6.3704 6.4055,11.5304 0.3435,12.1334 C4.5605,15.2454 9.7725,17.0004 15.4165,17.0004 C21.0605,17.0004 26.2725,15.2894 30.4905,12.1774 C24.4275,11.5744 19.6925,6.3704 19.6925,0.3704" id="Fill-6" fill="#D7D8D7" mask="url(#mask-4)"></path>
                </g>
                <path d="M24.8103,39.3307 L24.8103,39.3307 C18.8273,39.3307 13.9773,34.4807 13.9773,28.4977 L13.9773,21.6247 C13.9773,15.6417 18.8273,10.7917 24.8103,10.7917 L24.8103,10.7917 C30.7933,10.7917 35.6433,15.6417 35.6433,21.6247 L35.6433,28.4977 C35.6433,34.4807 30.7933,39.3307 24.8103,39.3307" id="Fill-9" fill="#E3E3E3"></path>
                <path d="M24.0775,9.25 L30.1435,11.292 L30.1435,11.292 C30.1435,17.091 25.4425,21.792 19.6435,21.792 L13.6435,21.792 L13.3935,16.542 L16.2265,13.125 L24.0775,9.25 Z" id="Fill-11" fill="#B3B3B3"></path>
                <path d="M37.3703,21.7917 L37.3703,21.7917 C33.2543,21.7917 29.9173,18.4547 29.9173,14.3387 L29.9173,11.2917 L34.8333,15.5207 L37.3703,21.7917 Z" id="Fill-13" fill="#B3B3B3"></path>
                <polygon id="Fill-15" fill="#C3C3C3" points="24.4196 33.2917 23.4196 33.2917 23.4196 26.2917 19.4196 26.2917 19.4196 25.2917 24.4196 25.2917"></polygon>
                <polygon id="Fill-17" fill="#C3C3C3" points="27.42 26.2913 31.42 26.2913 31.42 25.2913 27.42 25.2913"></polygon>
            </g>
        </g>
    </g>
</svg>